\relax 
\catcode`"\active
\catcode`<\active
\catcode`>\active
\@nameuse{es@quoting}
\select@language{spanish}
\@writefile{toc}{\select@language{spanish}}
\@writefile{lof}{\select@language{spanish}}
\@writefile{lot}{\select@language{spanish}}
\@writefile{toc}{\contentsline {section}{\numberline {1}Introducci\IeC {\'o}n}{1}}
\@writefile{toc}{\contentsline {section}{\numberline {2}Planificaci\IeC {\'o}n gen\IeC {\'e}tica}{1}}
\@writefile{toc}{\contentsline {subsection}{\numberline {2.1}Representaci\IeC {\'o}n y poblaci\IeC {\'o}n inicial}{1}}
\@writefile{toc}{\contentsline {subsection}{\numberline {2.2}Mutaci\IeC {\'o}n y Cruce}{2}}
\@writefile{toc}{\contentsline {subsection}{\numberline {2.3}Funci\IeC {\'o}n de aptitud}{2}}
\@writefile{toc}{\contentsline {subsection}{\numberline {2.4}Correci\IeC {\'o}n de cromosomas}{2}}
\@writefile{lof}{\contentsline {figure}{\numberline {1}{\ignorespaces Eliminaci\IeC {\'o}n de ciclos}}{2}}
\newlabel{fig:eliminar_ciclos}{{1}{2}}
\@writefile{lof}{\contentsline {figure}{\numberline {2}{\ignorespaces Suavizaci\IeC {\'o}n de camino}}{3}}
\newlabel{fig:suavizar_camino}{{2}{3}}
\@writefile{toc}{\contentsline {section}{\numberline {3}Resultados}{3}}
\@writefile{lof}{\contentsline {figure}{\numberline {3}{\ignorespaces Simplificaci\IeC {\'o}n de camino}}{3}}
\newlabel{fig:simplificar_camino}{{3}{3}}
\@writefile{toc}{\contentsline {subsection}{\numberline {3.1}Caminos generados}{3}}
\bibcite{1}{1}
\bibcite{2}{2}
\bibcite{3}{3}
\@writefile{lof}{\contentsline {figure}{\numberline {4}{\ignorespaces Caminos generados por A*}}{4}}
\newlabel{fig:caminos_astar}{{4}{4}}
\@writefile{toc}{\contentsline {subsection}{\numberline {3.2}Tiempo de ejecuci\IeC {\'o}n}{4}}
\@writefile{toc}{\contentsline {section}{\numberline {4}Conclusiones}{4}}
\@writefile{lof}{\contentsline {figure}{\numberline {5}{\ignorespaces Caminos generados por Algoritmo Gen\IeC {\'e}tico}}{4}}
\newlabel{fig:caminos_ga}{{5}{4}}
